Name,Sex,Equipment,BodyweightKg,WeightClassKg,Division,Squat1Kg,Squat2Kg,Squat3Kg,Best3SquatKg,Bench1Kg,Bench2Kg,Bench3Kg,Best3BenchKg,Deadlift1Kg,Deadlift2Kg,Deadlift3Kg,Best3DeadliftKg,TotalKg,Event,AgeRange,Place
Sabrina Shah,F,Raw,46.4,47,F-C-Open,82.5,87.5,92.5,92.5,55,57.5,-60,57.5,100,107.5,115,115,265,SBD,0-22.5,1
Shannon Tong,F,Raw,46.1,47,F-C-Open,90,-97.5,-97.5,90,45,-50,50,50,95,105,112.5,112.5,252.5,SBD,0-22.5,2
June Stamp,F,Raw,46.5,47,F-C-Open,67.5,-70,-72.5,67.5,30,35,-37.5,35,85,95,-100,95,197.5,SBD,39.5-48.5,3
Tiarna Pearce,F,Raw,51.2,52,F-C-Open,100,105,110,110,45,47.5,-50,47.5,107.5,112.5,-115,112.5,270,SBD,0-22.5,1
Emma Rafferty,F,Raw,50.3,52,F-C-Open,77.5,85,90,90,50,52.5,55,55,87.5,95,100,100,245,SBD,0-22.5,2
Chantal Pearson,F,Raw,50.8,52,F-C-Open,87.5,92.5,95,95,42.5,45,-47.5,45,100,-105,105,105,245,SBD,23.5-38.5,3
Suzana Sorokova,F,Raw,55.5,57,F-C-Open,100,107.5,-115,107.5,55,60,-62.5,60,115,120,122.5,122.5,290,SBD,23.5-38.5,1
Thea Gausel,F,Raw,54.8,57,F-C-Open,90,-95,95,95,50,52.5,-55,52.5,125,132.5,-142.5,132.5,280,SBD,23.5-38.5,2
Ellen Brooker,F,Raw,54.5,57,F-C-Open,60,65,-67.5,65,40,45,47.5,47.5,90,97.5,102.5,102.5,215,SBD,0-22.5,3
Leah Grant,F,Raw,62.3,63,F-C-Open,127.5,135,140,140,70,75,,75,145,155,160,160,375,SBD,23.5-38.5,1
Rima Baki,F,Raw,60.4,63,F-C-Open,105,112.5,120,120,62.5,67.5,-70,67.5,110,122.5,130,130,317.5,SBD,23.5-38.5,2
Moa Wikner,F,Raw,60.2,63,F-C-Open,105,-115,-115,105,60,65,67.5,67.5,125,135,140,140,312.5,SBD,0-22.5,3
Sarah French,F,Raw,61.4,63,F-C-Open,105,110,112.5,112.5,57.5,62.5,-65,62.5,110,120,-125,120,295,SBD,23.5-38.5,4
Vicky Stewart,F,Raw,62.9,63,F-C-Open,95,100,105,105,50,52.5,55,55,105,110,-112.5,110,270,SBD,23.5-38.5,5
Angeli Dahab,F,Raw,61.9,63,F-C-Open,95,105,-110,105,32.5,35,-40,35,95,105,-112.5,105,245,SBD,0-22.5,6
Alison Jones,F,Raw,60.7,63,F-C-Open,65,70,75,75,42.5,-47.5,50,50,100,110,115,115,240,SBD,49.5-58.5,7
Eno Majomi,F,Raw,67.4,72,F-C-Open,127.5,135,145,145,67.5,75,-80,75,135,145,155,155,375,SBD,39.5-48.5,1
Leonie Fraser,F,Raw,71.4,72,F-C-Open,100,110,115,115,55,60,62.5,62.5,112.5,120,130,130,307.5,SBD,0-22.5,2
Diane Stockwell,F,Raw,68.9,72,F-C-Open,95,100,102.5,102.5,57.5,60,62.5,62.5,105,112.5,117.5,117.5,282.5,SBD,39.5-48.5,3
Caoileann Appleby,F,Raw,66.8,72,F-C-Open,90,95,-100,95,52.5,57.5,-60,57.5,115,122.5,-127.5,122.5,275,SBD,23.5-38.5,4
Sarah Griffiths,F,Raw,71.9,72,F-C-Open,97.5,105,107.5,107.5,42.5,45,-47.5,45,102.5,110,-115,110,262.5,SBD,0-22.5,5
Deborah Akinpelu,F,Raw,64.7,72,F-C-Open,-87.5,87.5,92.5,92.5,42.5,45,47.5,47.5,90,97.5,107.5,107.5,247.5,SBD,23.5-38.5,6
Maria Herrera Sawai,F,Raw,70.1,72,F-C-Open,72.5,80,85,85,40,45,47.5,47.5,105,110,115,115,247.5,SBD,23.5-38.5,7
Paola Roccuzzo,F,Raw,84,84,F-C-Open,130,137.5,,137.5,65,70,,70,140,150,160,160,367.5,SBD,39.5-48.5,1
Suzy Taljard,F,Raw,81.2,84,F-C-Open,105,112.5,117.5,117.5,57.5,62.5,-65,62.5,135,145,150.5,150.5,330.5,SBD,0-22.5,2
Radha Balani,F,Raw,82.9,84,F-C-Open,112.5,117.5,120,120,57.5,60,62.5,62.5,130,137.5,142.5,142.5,325,SBD,23.5-38.5,3
Julia Stent,F,Raw,79.4,84,F-C-Open,102.5,110,-115,110,52.5,55,60,60,120,130,135,135,305,SBD,23.5-38.5,4
Sarah Broadbent-Spence,F,Raw,78.4,84,F-C-Open,90,97.5,105,105,40,45,47.5,47.5,110,120,-125,120,272.5,SBD,23.5-38.5,5
Ravi Sharma,M,Raw,58.4,59,M-C-Open,100,110,115,115,95,-107.5,-107.5,95,180,-200,-200,180,390,SBD,0-22.5,1
Harry Mackintosh,M,Raw,64.4,66,M-C-Open,70,80,-90,80,-40,42.5,47.5,47.5,145,155,-160,155,282.5,SBD,69.5-999,1
Giuseppe Merlerati,M,Raw,73.4,74,M-C-Open,170,-180,-180,170,110,-117.5,-117.5,110,220,230,-240,230,510,SBD,23.5-38.5,1
Stuart Payne,M,Raw,72.6,74,M-C-Open,145,155,162.5,162.5,117.5,-122.5,122.5,122.5,190,210,-215,210,495,SBD,23.5-38.5,2
Adam Holmes,M,Raw,70.5,74,M-C-Open,140,155,165,165,-105,115,-122.5,115,170,185,195,195,475,SBD,23.5-38.5,3
Andy Tanaka,M,Raw,73.8,74,M-C-Open,145,-155,-155,145,105,-112.5,-112.5,105,175,185,-200,185,435,SBD,0-22.5,4
Aiham Kasem,M,Raw,72.9,74,M-C-Open,140,-150,150,150,-90,90,95,95,160,170,180,180,425,SBD,0-17.5,5
Jahan Miah,M,Raw,66.8,74,M-C-Open,140,150,155,155,87.5,92.5,-100,92.5,145,150,,150,397.5,SBD,0-22.5,6
Thomas Gilbert,M,Raw,72.8,74,M-C-Open,112.5,120,-125,120,90,95,100,100,145,155,160,160,380,SBD,23.5-38.5,7
Jonathon Rose,M,Raw,69.2,74,M-C-Open,100,110,115,115,75,82.5,87.5,87.5,125,135,142.5,142.5,345,SBD,23.5-38.5,8
Aymen Al Hassan,M,Raw,80.9,83,M-C-Open,185,195,205,205,130,137.5,142.5,142.5,240,252.5,262.5,262.5,610,SBD,0-22.5,1
Lee Gray,M,Raw,80.8,83,M-C-Open,180,190,200,200,-140,140,,140,200,210,-235,210,550,SBD,23.5-38.5,2
Alan Joseph,M,Raw,83,83,M-C-Open,180,190,200,200,110,115,120,120,210,-230,230,230,550,SBD,49.5-58.5,3
Matthew Lindsay,M,Raw,81.8,83,M-C-Open,190,-200,202.5,202.5,117.5,125,-130,125,-190,200,210,210,537.5,SBD,0-22.5,4
Leo Doubble,M,Raw,82.9,83,M-C-Open,170,-180,180,180,115,117.5,-120,117.5,215,225,235,235,532.5,SBD,23.5-38.5,5
John Carter,M,Raw,82.5,83,M-C-Open,180,190,195,195,100,107.5,110,110,210,225,-235,225,530,SBD,23.5-38.5,6
Michal Strzelecki,M,Raw,82,83,M-C-Open,160,167.5,172.5,172.5,125,130,132.5,132.5,205,215,-225,215,520,SBD,23.5-38.5,7
Lukas Aziri,M,Raw,81.3,83,M-C-Open,170,175,180,180,-107.5,107.5,-110,107.5,210,220,230,230,517.5,SBD,23.5-38.5,8
Jonathan Jennings,M,Raw,81.3,83,M-C-Open,160,170,180,180,110,115,120,120,190,205,215,215,515,SBD,23.5-38.5,9
Theo Warren,M,Raw,81.4,83,M-C-Open,165,175,180,180,112.5,115,117.5,117.5,210,215,-217.5,215,512.5,SBD,0-22.5,10
David Rapazzini,M,Raw,81,83,M-C-Open,145,155,165,165,100,105,110,110,175,195,210,210,485,SBD,23.5-38.5,11
Omar Bakhshi,M,Raw,82.2,83,M-C-Open,140,150,-160,150,82.5,87.5,-95,87.5,190,200,-205,200,437.5,SBD,23.5-38.5,12
Jonathan Oviasu,M,Raw,83.9,93,M-C-Open,205,215,220,220,110,117.5,120,120,220,240,260,260,600,SBD,23.5-38.5,4
Peter Onyemenam,M,Raw,89.3,93,M-C-Open,165,180,200,200,95,-105,110,110,200,220,240,240,550,SBD,0-22.5,9
Freddie Maguire-King,M,Raw,89.6,93,M-C-Open,172.5,182.5,192.5,192.5,120,127.5,135,135,190,210,222.5,222.5,550,SBD,23.5-38.5,10
Thomas Page,M,Raw,91.3,93,M-C-Open,160,170,-180,170,105,110,115,115,210,222.5,-235,222.5,507.5,SBD,0-22.5,12
Michael Pierides,M,Raw,85.4,93,M-C-Open,-157.5,165,175,175,-95,100,107.5,107.5,155,167.5,177.5,177.5,460,SBD,0-17.5,13
Ty Burridge-Oakland,M,Raw,91.2,93,M-C-Open,150,-165,-170,150,90,100,-105,100,160,180,-200,180,430,SBD,23.5-38.5,14
Andrea Sperini,M,Raw,86.9,93,M-C-Open,135,-145,150,150,105,-115,-115,105,145,160,170,170,425,SBD,23.5-38.5,15
Charlie Keen,M,Raw,91.5,93,M-C-Open,,,,,107.5,115,120,120,,,,,120,B,0-22.5,2
Harry Davies,M,Raw,90.4,93,M-C-Open,,,,,130,135,142.5,142.5,,,,,142.5,B,0-22.5,1
Ronald Karim,M,Raw,91.6,93,M-C-Open,210,220,-235,220,150,160,165,165,225,240,250,250,635,SBD,23.5-38.5,1
Diego Martinez-Rodney,M,Raw,91,93,M-C-Open,212.5,-222.5,-230,212.5,130,137.5,145,145,242.5,262.5,272.5,272.5,630,SBD,23.5-38.5,2
Lewis Ball,M,Raw,92.6,93,M-C-Open,220,230,-240,230,135,142.5,150,150,230,250,-260,250,630,SBD,0-22.5,3
Ben Carley,M,Raw,90,93,M-C-Open,200,210,220,220,120,130,-137.5,130,230,250,-255,250,600,SBD,23.5-38.5,4
Louis Bichard,M,Raw,91.8,93,M-C-Open,205,215,225,225,127.5,135,140,140,210,225,-227.5,225,590,SBD,0-22.5,6
Carl Raghavan,M,Raw,91,93,M-C-Open,180,190,200,200,120,130,140,140,210,230,245,245,585,SBD,23.5-38.5,7
Ivan Otim,M,Raw,91,93,M-C-Open,-170,170,180,180,115,120,-122.5,120,235,255,272.5,272.5,572.5,SBD,0-22.5,8
Alex Chalkley,M,Raw,92.2,93,M-C-Open,185,190,192.5,192.5,110,115,-117.5,115,240,-252.5,-252.5,240,547.5,SBD,23.5-38.5,11
George Seeger,M,Single-ply,105,105,M-E-Open,-235,240,-250,240,180,-185,185,185,-290,-290,290,290,715,SBD,23.5-38.5,1
Thomas Celestin,M,Raw,100.3,105,M-C-Open,232.5,245,250,250,120,-125,,120,285,307.5,-315,307.5,677.5,SBD,39.5-48.5,1
Lucas Tavros,M,Raw,105,105,M-C-Open,-205,205,212.5,212.5,120,-125,-125,120,265,277.5,-292.5,277.5,610,SBD,23.5-38.5,2
Tim Wheeler,M,Raw,103.4,105,M-C-Open,210,220,227.5,227.5,110,115,-120,115,225,242.5,257.5,257.5,600,SBD,39.5-48.5,3
Kieran Stubbings,M,Raw,103.4,105,M-C-Open,180,190,195,195,120,125,130,130,190,210,215,215,540,SBD,0-22.5,4
Oliver Hexter,M,Raw,99.8,105,M-C-Open,170,180,187.5,187.5,120,125,130,130,195,205,212.5,212.5,530,SBD,23.5-38.5,5
Diell Zejnullahu,M,Raw,102.2,105,M-C-Open,145,155,165,165,107.5,115,-122.5,115,190,210,-230,210,490,SBD,0-17.5,6
Alistair Murdoch,M,Raw,110,120,M-C-Open,180,205,220,220,200,-215,215,215,240,260,-265,260,695,SBD,39.5-48.5,1
Elliot Davis,M,Raw,116.4,120,M-C-Open,190,210,215,215,122.5,132.5,-137.5,132.5,215,235,-237.5,235,582.5,SBD,23.5-38.5,2
Donald Man,M,Raw,107.7,120,M-C-Open,-145,160,165,165,97.5,-102.5,-102.5,97.5,190,200,-210,200,462.5,SBD,0-22.5,3
Kyriacos Ashioti,M,Raw,133,120+,M-C-Open,250,270,280,280,175,-185,-185,175,270,285,-300,285,740,SBD,23.5-38.5,1
Ian Lucy,M,Raw,131,120+,M-C-Open,-135,135,150,150,75,87.5,-95,87.5,135,150,155,155,392.5,SBD,0-17.5,2
Martin Marshall,M,Single-ply,111.4,120,M-E-Open,,,,,182.5,-192.5,-192.5,182.5,,,,,182.5,B,23.5-38.5,1
